{
  "event": "spam",
  "time": 1430812195,
  "MessageID": 13792286917004336,
  "Message_GUID": "1ab23cd4-e567-8901-2345-6789f0gh1i2j",
  "email": "bounce@mailjet.com",
  "mj_campaign_id": 0,
  "mj_contact_id": 0,
  "customcampaign": "",
  "CustomID": "helloworld",
  "Payload": "",
  "source": "JMRPP"
}
